isCWIPTransfer,AssetTypeID,AssetTypeTaxID,Name,FACode,PurchaseDate,PurchasePrice,CostForProduction,CostForEfficiency,WarrantyExpiry,SerNo,Description,AssetsCustodian,Location,SupplierID,MaintenanceDate,EffLife,DepriciationStartDate,DepMethod,AvgMethod,DepRate,TaxDepRate,ResidualRate,IsInventory
0,7,1,dsds,NCCPLaeqwe0520190001,04-05-18 0:00,10000,1000,1000,02-05-19 0:00,101.101,,a,3,23,02-05-19 0:00,10,02-05-19 0:00,Straight Line,Actual Days,10,10,0,FALSE
0,7,1,a,NCCPLaeqwe0520190001,02-05-19 0:00,10,10,10,02-05-19 0:00,1,,a,3,11,02-05-19 0:00,0,02-05-19 0:00,Reducing Balance,Actual Days,0,10,0,FALSE
0,7,1,a,NCCPLaeqwe0520190001,02-05-19 0:00,0,0,0,02-05-19 0:00,2,,1,3,20,02-05-19 0:00,0,02-05-19 0:00,Reducing Balance,Actual Days,0,0,0,FALSE
0,7,1,new,NCCPLaeqwe0520190001,06-05-19 0:00,20,20,20,06-05-19 0:00,1,,aaaa,3,11,06-05-19 0:00,10,06-05-19 0:00,Straight Line,Actual Days,10,10,0,FALSE
0,7,1,test,NCCPLaeqwe0520190001,06-05-19 0:00,10,10,10,06-05-19 0:00,2,,a,3,20,06-05-19 0:00,10,06-05-19 0:00,Straight Line,Actual Days,10,10,0,FALSE
