ItemName,Description,ProductionUnit,SalePrice,CostPrice,MRPPrice,Barcode,QRcode,isFree,isActive,Shelflife,MarketValue,ItemCode,isOnQuickPurchase,QMeasurmentUnit,QUnitPrice,QPreferredSupplierID,ItemType,CategoryID,COAID
Computer,,0,0,0,0,NULL,NULL,0,0,0,0,ELEC-0001,0,0,0,0,NULL,2,0
kkkk,,0,0,0,0,NULL,NULL,0,0,0,0,ELEC-0003,0,0,0,0,NULL,2,0
abc,,0,0,0,0,NULL,NULL,0,0,0,0,ELEC-0004,0,0,0,0,NULL,2,0
Charger,,0,0,0,0,NULL,NULL,0,0,0,0,EL-0005,0,0,0,0,NULL,2,0
Charger,,0,0,0,0,NULL,NULL,0,0,0,0,ME-0001,0,0,0,0,NULL,3,0
Pixel 3 XL,,0,0,0,0,NULL,NULL,0,0,0,0,ElecPhone-0001,0,0,0,0,NULL,4,0
OnePlus 6T,,0,0,0,0,NULL,NULL,0,0,20,0,ElecPhone-0008,0,0,0,0,NULL,4,0
