EmployeeID,EmployeeCode,EmployeeName,UserID
140,AEPL_00001,Najeeb  ,
142,AEPL_00003,Atif  ,
143,AEPL_00004,Saad Ullah Jaral,7
148,AEPL_00005,Abrar  Ghani,105
149,AEPL_00006,Usman  Nawaz,47
150,AEPL_00007,Kamal Ahmad Cheema,49
151,AEPL_00008,Zia  Habib,46
152,AEPL_00009,Sameer  Ashraf,48
154,AEPL_00010,Rana Jumshaid  Ali,201
155,AEPL_00011,Ayesha  Babar,
156,AEPL_00012,Muhammad Haroon Khan Lodhi,3
157,AEPL_00013,Gulfraz  Arshad,
158,AEPL_00014,Naeem Ahmad Tariq,
159,AEPL_00015,Mobeen ur Rehman,
160,AEPL_00016,Abdul Qayyum  Khan,
161,AEPL_00017,Farooq Mujtaba Qureshi,
162,AEPL_00018,Sajid Ali Malik,
163,AEPL_00019,Muhammad  Sulaiman Jaffery,
164,AEPL_00020,Abid  Hussain,
165,AEPL_00021,Danyaal  Mohsin,
166,AEPL_00022,Shakil Azmat Malik,
167,AEPL_00023,Muhammad Iqbal Ashraf,110
168,AEPL_00024,Muhammad Moeez Ikram,55
169,AEPL_00025,Muhammad Naveed Zafar,109
170,AEPL_00026,Aneel  Michael,
171,AEPL_00027,Muhammad Ayub Baig,
173,AEPL_00029,Samsoon Hadyat Masih,37
174,AEPL_00030,Ummad  Zafar,
175,AEPL_00031,Shahzad  Khaleeq Awan,
176,AEPL_00032,Hafiz Ahmad Husnain,
177,AEPL_00033,Sarfraz  Ahmad,
178,AEPL_00034,Muhammad Ali Khan,
179,AEPL_00035,Zohar  Dean,
180,AEPL_00036,Rohail  Zahoor,41
181,AEPL_00037,Khizar  Hayat,
182,AEPL_00038,Muhammad  Mushtaq,
183,AEPL_00039,Muntazir Mehndi  Hassan Shah,
184,AEPL_00040,Muhammad  Javed,61
185,AEPL_00041,Tariq  Jameel,
186,AEPL_00042,Chaudhry Muhammad Zubair Ashraf,
187,AEPL_00043,Imran  Arshad,
189,AEPL_00044,Mirza Sajjad  Baig,
190,AEPL_00045,Muhammad Javaid Khan  Abbasi,102
191,AEPL_00045,Muhammad Javaid Khan  Abbasi,
192,AEPL_00046,Abdul   Aziz,
193,AEPL_00047,Muhammad   Wazir,
194,AEPL_00048,Usman  Iftikhar,
195,AEPL_00049,Tauqeer  Raza,
196,AEPL_00050,Muhammad Naeem Zafar,
197,AEPL_00051,Nazar  Elahi,36
198,AEPL_00052,Muhammad Abdullah Mumtaz,
199,AEPL_00053,Noman  Saeed,
200,AEPL_00054,Munir Ahmed Tahir,62
201,AEPL_00055,Muhammad  Ashraf,115
202,AEPL_00056,Mumtaz  Hussain,18
203,AEPL_00057,Muhammad   Sharafat,21
204,AEPL_00058,Kashif  Masih,23
205,AEPL_00059,Shahid   Ali,111
206,AEPL_00060,Farrukh  Hussain,114
209,AEPL_00063,Muhammad  Awais,14
210,AEPL_00064,Usman  Masih,34
211,AEPL_00065,Azam   Ali,
212,AEPL_00066,Muhammad Zubair  Aslam,43
213,AEPL_00067,Manzoor   Hussain,12
214,AEPL_00068,Sanaullah  Khan,35
215,AEPL_00069,Naseer  Ahmad,15
216,AEPL_00070,Muhammad  Hashim,20
217,AEPL_00071,Muhammad Saeed  Umer,17
218,AEPL_00072,Haris  Hayat,112
220,AEPL_00074,Muhammad  Nawaz,
221,AEPL_00075,Bashir  Ahmad,
222,AEPL_00076,Muhammad  Riaz,
223,AEPL_00077,Asif  Rashi,
225,AEPL_00079,Muhammad  Raza,19
226,AEPL_00080,Ghulam  Nazak,32
227,AEPL_00081,Muhammad   Saleem,
228,AEPL_00082,Umar  Siddique,9
229,AEPL_00083,Muzammel  Khalid,13
230,AEPL_00084,Ibad  Ullah,11
231,AEPL_00085,Hafiz Muhammad  Haseeb Hafeez,
232,AEPL_00086,Aman  ullah,
233,AEPL_00087,Khalid   Abbas,
234,AEPL_00088,Nasim  Bari,
235,AEPL_00089,Riaz   Hussain,
236,AEPL_00090,Imran  Masih,54
238,AEPL_00092,Muhammad  Nadeem,16
239,AEPL_00093,Ammar  Khalid,
240,AEPL_00094,Sami Ullah  Mahmood,53
241,AEPL_00095,Muhammad  Iqbal,
242,AEPL_00096,Muhammad Basit  Jamal,63
244,AEPL_00098,Muhammad Azeem   Baig,
245,AEPL_00099,Muhammad Yousha  Ahsan Qureshi,
246,AEPL_00100,Muhammad Kaleem  Ali,
247,AEPL_00101,Moazzam Ahsan  Riaz,
248,AEPL_00102,Abdul   Sammad,
249,AEPL_00103,Dilshad  Ahmad,
250,AEPL_00104,Abdul   Wajid,
251,AEPL_00105,Fida  Muhammad,
252,AEPL_00106,Muhammad  Yousaf,
253,AEPL_00107,Muhammad   Ilyas,
254,AEPL_00108,Muhammad  Irshad,
255,AEPL_00109,Allah  Ditta,
256,AEPL_00110,Johnson  Masih,101
257,AEPL_00111,Muhammad  Ahmad,
442,AEPL_00116,Dur-e-Shahwar  Umer,5
443,AEPL_00117,Kaleem  Ullah,4
444,AEPL_00118,Manish  Kotak,6
445,AEPL_00119,Shakeel  Ahmad,33
446,AEPL_00120,Asim  Ghafoor,38
447,AEPL_00121,Nouman  Asghar,10
448,AEPL_00122,Hamza  Ashraf,
449,AEPL_00123,Awad   Khalid,
450,AEPL_00124,Fazal Ur Rehman,99
451,AEPL_00125,Muhammad   Imran,22
452,AEPL_00126,Muhammad Haroon Azhar,
454,AEPL_00127,Umair  Mustafa,
455,AEPL_00128,Muhammad   Rafiq,
456,AEPL_00129,Muhammad Irfan Khan,
457,AEPL_00130,Amaan  Ullah,
458,AEPL_00131,Muhammad  Yaseen,
460,AEPL_00132,Asma  Rizwan,
461,AEPL_00133,Shahzad   Iqbal,51
462,AEPL_00134,Muhammad   Tanveer,44
463,AEPL_00135,Mazhar  Abbas,
464,AEPL_00136,Taha Farooq Khan,
465,AEPL_00137,Muhammad  Hamza Afzal,
466,AEPL_00138,Shazab   Shafiq,
467,AEPL_00139,Musa Kazim Naeem,
468,AEPL_00140,Muhammad Shoaib   Ashraf,
469,AEPL_00141,Muhammad  Rashid,113
470,AEPL_00142,Muhammad Jahanzaib Lodhi,8
471,AEPL_00143,Raffi  Ullah,
472,AEPL_00144,Muhammad   Sharafat,
473,AEPL_00145,Abid  Mehmood,
474,AEPL_00146,Muhammad  Ashraf,
475,AEPL_00147,Muhammad Moti  ur Rehman,
476,AEPL_00148,Arif  Hussain,50
477,AEPL_00149,Muhammad   Imran,
478,AEPL_00150,Ch Muhammad Junaid Fateh,
479,AEPL_00151,Shafqat  Rasool,104
480,AEPL_00152,Ali   Moazzam,
481,AEPL_00153,Yousaf  Ali,
482,AEPL_00154,Mahmood  Ahmad,
483,AEPL_00155,Muhammad Arif Zaman,
484,AEPL_00156,Abid   Hussain,
487,AEPL_00157,Mohsin  Ameer,
488,AEPL_00158,Muhammad Bilal  Aslam Mughal,
489,AEPL_00159,Muhammad   Umair,
490,AEPL_00160,Khawaja Junaid  Zahid,
491,AEPL_00161,Arbelo  Malik,
492,AEPL_00162,Hafiz Asad Ur Rehman,
493,AEPL_00163,Muhammad Jehanzaib  Hassan,103
494,AEPL_00164,Muhammad Tariq  Mahmood,
495,AEPL_00165,Muhammad  Awais,
496,AEPL_00166,Amir Habib  Bhatti,100
497,AEPL_00167,Mazhar  Saeed,
498,AEPL_00168,Azhar   Hussain,
499,AEPL_00169,Habib  Ahmad,
500,AEPL_00170,Shabbir   Ahmed,
501,AEPL_00171,Altaf  Hussain,
502,AEPL_00172,Muhammad Umair  Akram,
503,AEPL_00173,Safdar Ali Bhatti,
504,AEPL_00174,Sajid  Mahmood,
505,AEPL_00175,Rasheed   Ahmad,
506,AEPL_00176,Tanveer  Anjum,
507,AEPL_00177,Bashir  Ahmad,
508,AEPL_00178,Qazi Nasir Mahmood,
509,AEPL_00179,Muhammad  Sarfraz,
510,AEPL_00180,Muhammad Imran Baig,
511,AEPL_00181,Muhammad  Sarwar,
512,AEPL_00182,Muhammad Rizwan  Nazir,
513,AEPL_00183,Muhammad   Akram,
514,AEPL_00184,Sajid  Ali,
515,AEPL_00185,Zubair  Alam,
516,AEPL_00186,Muhammad  Amin,
517,AEPL_00187,Syed Tasleem Abbas Shah,
518,AEPL_00188,Shameer   Ahmad,
519,AEPL_00189,Afzal  Mehdi,
520,AEPL_00190,Qamar  Tanveer,
521,AEPL_00191,Mubashar   Tanveer,
522,AEPL_00192,Babar  Ali,
523,AEPL_00193,Muhammad Farhan Sajid Malik,
524,AEPL_00194,Tariq Saeed Chaudhry,
525,AEPL_00195,Majid  Masih,
526,AEPL_00196,Mirza Naveed Baig,
529,AEPL_00199,Barkat  Ali,
530,AEPL_00200,Muhammad  Farooq,
531,AEPL_00201,Muhammad  Ehsan,58
532,AEPL_00202,Khawar  Mehmood,
533,AEPL_00203,Syed Chan  Shah,42
534,AEPL_00204,Hafiz Sajjad  Ahmad Malik,
535,AEPL_00205,Muhammad  Usman,
536,AEPL_00206,Muhammad Ibtsam  Talha,
561,AEPL_00207,Muhammad  Wazir,
564,AEPL_00208,Anwar  Ali,
565,AEPL_00209,Muhammad Ashfaq  Hussain,
566,AEPL_00210,Muhammad   Taufique,
567,AEPL_00211,Muhammad  Nadeem,
585,AEPL_00212,Manzoor  Ahmad Channa,
586,AEPL_00213,Muhammad   Usman,
587,AEPL_00214,Zohaib  Asif,
588,AEPL_00215,Usman  Qamar,
589,AEPL_00216,Zeeshan  Ahmad,
590,AEPL_00217,Mumtaz  Ahmad  Lashari,
591,AEPL_00218,Muhammad  Sharif,
592,AEPL_00219,Abdul  Manan,
593,AEPL_00220,Kamran  Saeed,52
594,AEPL_00221,Bilal  Ahmad,
597,AEPL_00223,Qaisar  Nadeem,
598,AEPL_00224,Muhammad Talha  Tajammul,
599,AEPL_00225,Assad  Ullah Barohi,
600,AEPL_00226,Muhammad  Sibtain,
601,AEPL_00227,Syed Husnain  Raza,
602,AEPL_00228,Itrat  Shahzad,
674,AEPL_00229,Muhammad   Siddique,
675,AEPL_00230,Aftab  Ali,
676,AEPL_00231,Sayaam  Ismail,106
677,AEPL_00232,Faqeer  Muhammad ,107
689,AEPL_00233,Fahad  Yousaf,
690,AEPL_00234,Zahid  Irfan,
691,AEPL_00235,Abdul  Manan,
692,AEPL_00236,Talha  Farooq,
698,AEPL_00238,Shaheer  Ahmad  Khan,119
