Transaction Date ,Description ,Debit ,Credit ,Available Balance ,
"01/04/2019" ,"Opening Balance" , , ,"1316.15" ,
"02/04/2019" ,"KHI DEFENCE BRANCH KARACHI AC-PKR1716300010159  AC-PKR1716300010159" ,"18.75" , ,"1297.4" ,
"02/04/2019" ,"VISA ATM Cash Withdrawal BY STAN (151015) FROM KHI DEFENCE BRANCH KARACHI " ,"1000.0" , ,"297.4" ,
"05/04/2019" ,"Transfer from Ac# PKR1716600010001 TO Ac# 0103089643 FOODPANDA   FOODPANDA" , ,"650.0" ,"947.4" ,
"06/04/2019" ,"KHI DEFENCE BRANCH KARACHI AC-PKR1716300010159  AC-PKR1716300010159" ,"18.75" , ,"928.65" ,
"06/04/2019" ,"VISA ATM Cash Withdrawal BY STAN (625341) FROM KHI DEFENCE BRANCH KARACHI " ,"500.0" , ,"428.65" ,
"08/04/2019" ,"Internet purchase Visa STAN (068392) at FOODPANDA  " ,"350.0" , ,"78.65" ,
"09/04/2019" ,"Batch Transfer - Credit  SALARY" , ,"36500.0" ,"36578.65" ,
"09/04/2019" ,"Charges Taxes Plus FED  AC-PKR1717900010159" ,"56.5" , ,"36522.15" ,
"09/04/2019" ,"IB IBFT TO MCB0975046351002785STAN(661281)  " ,"7050.0" , ,"29472.15" ,
"09/04/2019" ,"UFONE SUPERCARD - RS 45 03312402097 STAN(675498)  " ,"599.0" , ,"28873.15" ,
"09/04/2019" ,"Charges Taxes Plus FED  AC-PKR1717900010159" ,"56.5" , ,"28816.65" ,
"09/04/2019" ,"IB IBFT TO HBL62HABB000656001845060STAN(679523)  " ,"9500.0" , ,"19316.65" ,
"09/04/2019" ,"POS Transaction By STAN (382574) at CHASE UP  " ,"1508.0" , ,"17808.65" ,
"09/04/2019" ,"POS Transaction By STAN (418721) at CHASE UP  " ,"405.0" , ,"17403.65" ,
"10/04/2019" ,"Real Time Online Funds Transfer Txn - From A/C #0103089643 TO 1015XXXXXXXXXXXX By STAN (901268)  " ,"8151.0" , ,"9252.65" ,
"10/04/2019" ,"KHI SHAHEED-E-MILLAT KARACHI AC-PKR1716300010159  AC-PKR1716300010159" ,"18.75" , ,"9233.9" ,
"10/04/2019" ,"VISA ATM Cash Withdrawal BY STAN (827343) FROM KHI SHAHEED-E-MILLAT KARACHI " ,"2000.0" , ,"7233.9" ,
"10/04/2019" ,"MOBILINK PREPAID 03003770800 FROM M STAN(934230)  " ,"200.0" , ,"7033.9" ,
"11/04/2019" ,"MOBILINK PREPAID 03007081973 FROM M STAN(022395)  " ,"750.0" , ,"6283.9" ,
"11/04/2019" ,"Charges Taxes Plus FED  AC-PKR1716500010159" ,"60.0" , ,"6223.9" ,
"11/04/2019" ,"POS Transaction By STAN (222703) at NETFLIX.COM  " ,"1500.0" , ,"4723.9" ,
"11/04/2019" ,"POS Transaction By STAN (598833) at QURBAN SERVICE STATIO  " ,"820.0" , ,"3903.9" ,
"12/04/2019" ,"VISA ATM Cash Withdrawal BY STAN (250349) FROM BAIT US SALAM-KARACHI " ,"3500.0" , ,"403.9" ,
"22/04/2019" ,"POS Transaction By STAN (009786) at AB GHAZI 7 (PSO)  " ,"300.0" , ,"103.9" ,
"23/04/2019" ,"Transfer from Ac# 0103030502 TO Ac# 0103089643 14205777   14205777 (REF# 14205777)" , ,"10000.0" ,"10103.9" ,
"24/04/2019" ,"Charges Taxes Plus FED  AC-PKR1717900010159" ,"16.95" , ,"10086.95" ,
"24/04/2019" ,"IBFT TO MCB 0975046351002785STAN(182716)  " ,"3000.0" , ,"7086.95" ,
"24/04/2019" ,"VISA ANNUAL FEE 2019 STAN(020668)  " ,"750.0" , ,"6336.95" ,
"24/04/2019" ,"FED AMOUNT STAN(020668)  " ,"97.5" , ,"6239.45" ,
"25/04/2019" ,"KHI DEFENCE BRANCH KARACHI AC-PKR1716300010159  AC-PKR1716300010159" ,"18.75" , ,"6220.7" ,
"25/04/2019" ,"VISA ATM Cash Withdrawal BY STAN (075667) FROM KHI DEFENCE BRANCH KARACHI " ,"1000.0" , ,"5220.7" ,
"26/04/2019" ,"VISA ATM Cash Withdrawal BY STAN (586023) FROM GARDEN WEST BR-KARACHI " ,"2000.0" , ,"3220.7" ,
"27/04/2019" ,"UFONE SUPERCARD - RS 45 03332992420 STAN(895144)  " ,"599.0" , ,"2621.7" ,
"29/04/2019" ,"KHI DEFENCE BRANCH KARACHI AC-PKR1716300010159  AC-PKR1716300010159" ,"18.75" , ,"2602.95" ,
"29/04/2019" ,"VISA ATM Cash Withdrawal BY STAN (859272) FROM KHI DEFENCE BRANCH KARACHI " ,"2000.0" , ,"602.95" ,
"02/05/2019" ,"Online Cash Deposit Cr  0670206" , ,"20000.0" ,"20602.95" ,
"02/05/2019" ,"KHI SHAHEED-E-MILLAT KARACHI AC-PKR1716300010159  AC-PKR1716300010159" ,"18.75" , ,"20584.2" ,
"02/05/2019" ,"VISA ATM Cash Withdrawal BY STAN (900764) FROM KHI SHAHEED-E-MILLAT KARACHI " ,"10000.0" , ,"10584.2" ,
"03/05/2019" ,"PSO-QURBAN S/S KARACHI AC-PKR1716300010159  AC-PKR1716300010159" ,"18.75" , ,"10565.45" ,
"03/05/2019" ,"VISA ATM Cash Withdrawal BY STAN (369909) FROM PSO-QURBAN S/S KARACHI " ,"2000.0" , ,"8565.45" ,
"03/05/2019" ,"POS Transaction By STAN (443288) at QURBAN SERVICE STATIO  " ,"650.0" , ,"7915.45" ,
"04/05/2019" ,"GULISTAN-E-JOHAR KARACH KARACHI AC-PKR1716300010159  AC-PKR1716300010159" ,"18.75" , ,"7896.7" ,
"04/05/2019" ,"VISA ATM Cash Withdrawal BY STAN (585456) FROM GULISTAN-E-JOHAR KARACH KARACHI " ,"2000.0" , ,"5896.7" ,
"06/05/2019" ,"BADAR COMMERCIAL KARACHI AC-PKR1716300010159  AC-PKR1716300010159" ,"18.75" , ,"5877.95" ,
"06/05/2019" ,"VISA ATM Cash Withdrawal BY STAN (875768) FROM BADAR COMMERCIAL KARACHI " ,"1000.0" , ,"4877.95" ,
"06/05/2019" ,"Charges Taxes Plus FED  AC-PKR1716500010159" ,"5.69" , ,"4872.26" ,
"06/05/2019" ,"Internet International purchase Visa STAN (712446) at AlibabaCloud.com  " ,"142.35" , ,"4729.91" ,
"06/05/2019" ,"Charges Taxes Plus FED  AC-PKR1716500010159" ,"5.69" , ,"4724.22" ,
"06/05/2019" ,"Internet International purchase Visa STAN (452022) at GOOGLE *SERVICES  " ,"142.35" , ,"4581.87" ,
"06/05/2019" ,"Charges Taxes Plus FED  AC-PKR1716500010159" ,"5.69" , ,"4576.18" ,
"06/05/2019" ,"Internet International purchase Visa STAN (955315) at AlibabaCloud.com  " ,"142.35" , ,"4433.83" ,
"06/05/2019" ,"Charges Taxes Plus FED  AC-PKR1716500010159" , ,"5.69" ,"4439.52" ,
"06/05/2019" ,"Internet International purchase Visa STAN (452022) at GOOGLE *SERVICES  " , ,"142.35" ,"4581.87" ,
"06/05/2019" ,"Batch Transfer - Credit  SALARY" , ,"36584.0" ,"41165.87" ,
"06/05/2019" ,"Charges Taxes Plus FED  AC-PKR1716500010159" , ,"5.69" ,"41171.56" ,
"06/05/2019" ,"Internet International purchase Visa STAN (955315) at AlibabaCloud.com  " , ,"142.35" ,"41313.91" ,
"06/05/2019" ,"SUNSET BOULEVARD KARACHI AC-PKR1716300010159  AC-PKR1716300010159" ,"18.75" , ,"41295.16" ,
"06/05/2019" ,"VISA ATM Cash Withdrawal BY STAN (916369) FROM Sunset Boulevard Karachi " ,"2000.0" , ,"39295.16" ,
"07/05/2019" ,"Charges Taxes Plus FED  AC-PKR1717900010159" ,"16.95" , ,"39278.21" ,
"07/05/2019" ,"IB IBFT TO UBL11UNIL010900020380729STAN(428206)  " ,"2460.0" , ,"36818.21" ,
"08/05/2019" ,"UFONE SUPERCARD - RS 45 03312402097 STAN(357329)  " ,"520.0" , ,"36298.21" ,
"08/05/2019" ,"Charges Taxes Plus FED  AC-PKR1717900010159" ,"56.5" , ,"36241.71" ,
"08/05/2019" ,"IBFT TO HBL PK62HABB000656001845060STAN(357646)  " ,"8500.0" , ,"27741.71" ,
"10/05/2019" ,"VISA ATM Cash Withdrawal BY STAN (994381) FROM Block 4 Clifton " ,"2000.0" , ,"25741.71" ,
"10/05/2019" ,"POS Transaction By STAN (393045) at CHASE UP  " ,"8790.0" , ,"16951.71" ,
"10/05/2019" ,"Real Time Online Funds Transfer Txn - From A/C #0103089643 TO 1015XXXXXXXXXXXX By STAN (901384)  " ,"8151.0" , ,"8800.71" ,
"10/05/2019" ,"Internet purchase Visa STAN (046031) at EDEN APPARELS PVT LTD  " ,"7896.0" , ,"904.71" ,
"13/05/2019" ,"DEHLI COLONY KARACHI AC-PKR1716300010159  AC-PKR1716300010159" ,"18.75" , ,"885.96" ,
"13/05/2019" ,"VISA ATM Cash Withdrawal BY STAN (724043) FROM DEHLI COLONY KARACHI " ,"500.0" , ,"385.96" ,
"13/05/2019" ,"Internet Banking - Funds Transfer Transaction - From A/C #0102095292 TO 0103089643 By   " , ,"3000.0" ,"3385.96" ,
"13/05/2019" ,"POS Transaction By STAN (527745) at UNITED KING  " ,"245.0" , ,"3140.96" ,
"13/05/2019" ,"CHRTRD ACCNT AVENUE EARACHI AC-PKR1716300010159  AC-PKR1716300010159" ,"18.75" , ,"3122.21" ,
"13/05/2019" ,"VISA ATM Cash Withdrawal BY STAN (145652) FROM CHRTRD ACCNT AVENUE EARACHI " ,"3000.0" , ,"122.21" ,
"28/05/2019" ,"Internal Transfer  " , ,"36584.0" ,"36706.21" ,
"28/05/2019" ,"Internet Banking - Funds Transfer Transaction - From A/C #0103089643 TO 0102095292 By STAN (251727)  " ,"4600.0" , ,"32106.21" ,
"28/05/2019" ,"MOBILINK PREPAID 03007081973 FROM M STAN(262012)  " ,"1200.0" , ,"30906.21" ,
"28/05/2019" ,"SADDAR KARACHI PK KARACHI AC-PKR1716300010159  AC-PKR1716300010159" ,"18.75" , ,"30887.46" ,
"28/05/2019" ,"VISA ATM Cash Withdrawal BY STAN (973715) FROM Saddar  Karachi PK Karachi " ,"3000.0" , ,"27887.46" ,
"29/05/2019" ,"Charges Taxes Plus FED  AC-PKR1717900010159" ,"56.5" , ,"27830.96" ,
"29/05/2019" ,"IBFT TO HBL PK62HABB000656001845060STAN(891258)  " ,"8000.0" , ,"19830.96" ,
"30/05/2019" ,"VISA ATM Cash Withdrawal BY STAN (180850) FROM KHADDA MKT BR DHA-KHI " ,"2000.0" , ,"17830.96" ,
"30/05/2019" ,"Closing Balance" , , ,"17830.96" ,
