Transaction Date ,Description ,Debit ,Credit 
10/6/19,POS Transaction By STAN (009786) at AB GHAZI 7 (PSO)   ,,650
10/6/19,Transfer from Ac# 0103030502 TO Ac# 0103089643 14205777   14205777 (REF# 14205777) ,,10103.9
10/6/19,Charges Taxes Plus FED  AC-PKR1717900010159 ,,10086.95
10/6/19,IBFT TO MCB 0975046351002785STAN(182716)   ,,7086.95
10/6/19,VISA ANNUAL FEE 2019 STAN(020668)   ,,6336.95
10/6/19,FED AMOUNT STAN(020668)   ,6239.45,
10/6/19,KHI DEFENCE BRANCH KARACHI AC-PKR1716300010159  AC-PKR1716300010159 ,6220.7,
10/6/19,VISA ATM Cash Withdrawal BY STAN (075667) FROM KHI DEFENCE BRANCH KARACHI  ,5220.7,
10/6/19,VISA ATM Cash Withdrawal BY STAN (586023) FROM GARDEN WEST BR-KARACHI  ,3220.7,
10/6/19,UFONE SUPERCARD - RS 45 03332992420 STAN(895144)   ,2621.7,
