Transaction Date ,Description ,Debit ,Credit 
22/04/2019 ,POS Transaction By STAN (009786) at AB GHAZI 7 (PSO)   ,,103.9
23/04/2019 ,Transfer from Ac# 0103030502 TO Ac# 0103089643 14205777   14205777 (REF# 14205777) ,,10103.9
24/04/2019 ,Charges Taxes Plus FED  AC-PKR1717900010159 ,,10086.95
24/04/2019 ,IBFT TO MCB 0975046351002785STAN(182716)   ,,7086.95
24/04/2019 ,VISA ANNUAL FEE 2019 STAN(020668)   ,,6336.95
24/04/2019 ,FED AMOUNT STAN(020668)   ,6239.45,
25/04/2019 ,KHI DEFENCE BRANCH KARACHI AC-PKR1716300010159  AC-PKR1716300010159 ,6220.7,
25/04/2019 ,VISA ATM Cash Withdrawal BY STAN (075667) FROM KHI DEFENCE BRANCH KARACHI  ,5220.7,
26/04/2019 ,VISA ATM Cash Withdrawal BY STAN (586023) FROM GARDEN WEST BR-KARACHI  ,3220.7,
27/04/2019 ,UFONE SUPERCARD - RS 45 03332992420 STAN(895144)   ,2621.7,
29/04/2019 ,KHI DEFENCE BRANCH KARACHI AC-PKR1716300010159  AC-PKR1716300010159 ,18.75,2602.95
10/6/2019,VISA ATM Cash Withdrawal BY STAN (859272) FROM KHI DEFENCE BRANCH KARACHI  ,,650
